<?xml version="1.0" standalone="no"?>
<!DOCTYPE svg PUBLIC "-//W3C//DTD SVG 20010904//EN"
 "http://www.w3.org/TR/2001/REC-SVG-20010904/DTD/svg10.dtd">
<svg version="1.0" xmlns="http://www.w3.org/2000/svg"
 width="700.000000pt" height="700.000000pt" viewBox="0 0 700.000000 700.000000"
 preserveAspectRatio="xMidYMid meet">
<metadata>
Created by potrace 1.11, written by Peter Selinger 2001-2013
</metadata>
<g transform="translate(0.000000,700.000000) scale(0.100000,-0.100000)"
fill="#000000" stroke="none">
<path d="M6025 6929 c-148 -37 -281 -70 -295 -73 -31 -6 -929 -229 -1030 -256
-41 -11 -212 -54 -380 -95 -168 -41 -321 -79 -340 -85 -41 -12 -419 -106 -500
-125 -105 -24 -515 -127 -565 -141 -46 -13 -913 -229 -962 -239 -12 -3 -192
-48 -400 -100 -208 -53 -387 -98 -398 -100 -154 -34 -595 -149 -595 -155 0 -5
16 -26 36 -47 30 -32 122 -129 270 -289 16 -16 89 -94 163 -172 74 -79 143
-152 153 -164 10 -12 78 -84 151 -162 72 -77 159 -169 192 -205 33 -35 99
-105 146 -155 116 -122 158 -170 154 -176 -3 -5 -52 -186 -60 -220 -2 -8 -35
-130 -73 -270 -39 -140 -100 -367 -137 -505 -37 -137 -78 -288 -91 -335 -30
-110 -335 -1240 -339 -1260 -2 -8 -15 -55 -29 -105 -13 -49 -57 -209 -96 -355
-39 -146 -78 -287 -85 -315 -13 -44 -57 -205 -188 -695 -19 -69 -34 -126 -33
-127 1 -1 415 102 921 228 506 127 929 232 940 234 33 6 946 234 1000 250 39
11 230 59 325 80 38 9 796 198 885 221 55 15 116 30 135 34 19 4 172 42 340
84 168 43 314 79 325 82 11 2 215 53 454 113 l434 108 -79 84 c-114 121 -108
114 -239 254 -66 71 -136 145 -155 165 -19 20 -82 88 -140 150 -58 62 -121
129 -140 149 -19 21 -66 71 -105 112 -38 41 -125 133 -192 204 -210 224 -223
239 -223 255 0 9 24 105 54 215 30 110 87 319 126 465 39 146 83 306 96 355
14 50 27 97 29 106 3 16 98 366 197 729 69 255 136 501 158 585 10 39 26 97
35 130 9 33 27 103 41 155 14 52 55 202 91 334 35 131 66 246 68 255 3 9 13
48 24 86 28 102 102 377 106 395 12 49 76 283 88 323 8 26 12 49 9 51 -4 2
-128 -27 -277 -65z m-318 -543 c-6 -15 -97 -353 -102 -377 -2 -9 -13 -49 -25
-89 -12 -40 -23 -80 -25 -89 -4 -19 -103 -387 -139 -516 -2 -5 -6 -23 -11 -40
-4 -16 -40 -151 -80 -300 -41 -148 -99 -364 -130 -480 -31 -115 -70 -259 -87
-320 -16 -60 -31 -117 -33 -125 -2 -8 -27 -100 -55 -205 -29 -104 -53 -197
-55 -205 -2 -8 -26 -98 -54 -200 -28 -102 -56 -204 -62 -227 -7 -24 -14 -43
-17 -43 -3 0 -17 13 -31 29 -14 16 -55 60 -91 98 -132 140 -406 432 -485 518
-21 22 -85 91 -144 153 -58 62 -126 134 -150 160 -59 64 -163 174 -302 323
-65 68 -132 140 -150 160 -19 20 -84 89 -146 155 -61 65 -123 133 -139 149
-15 17 -82 89 -150 160 -67 72 -137 146 -154 165 -18 19 -86 91 -150 160 -65
69 -137 145 -159 170 l-41 45 272 68 c150 38 283 70 296 73 12 2 75 18 140 35
64 17 124 32 132 34 8 2 299 74 645 160 347 86 637 158 645 160 8 2 69 18 135
35 66 17 133 33 149 36 16 3 32 7 36 9 3 2 17 6 31 9 13 3 34 7 47 10 12 4 30
8 40 10 9 2 37 9 62 16 25 7 52 14 60 16 8 2 53 13 100 24 47 12 94 24 105 26
11 2 70 17 130 33 128 34 149 36 142 17z m-3530 -888 c-4 -13 -55 -202 -114
-421 l-108 -398 -64 68 c-35 37 -121 129 -190 203 -69 74 -160 171 -202 215
-42 44 -91 97 -108 117 l-32 37 28 7 c559 142 761 192 777 193 14 1 17 -4 13
-21z m382 -520 c32 -35 73 -79 91 -98 18 -19 87 -93 153 -163 67 -71 128 -137
136 -146 9 -10 75 -80 146 -156 72 -76 141 -151 155 -165 14 -15 86 -92 160
-171 74 -79 167 -178 205 -219 39 -41 72 -77 75 -80 3 -3 39 -41 80 -85 262
-280 354 -377 406 -434 32 -35 77 -83 99 -106 22 -23 92 -97 155 -165 63 -68
152 -162 197 -209 45 -47 83 -94 83 -103 0 -10 -25 -111 -56 -225 -141 -521
-137 -510 -152 -486 -6 9 -134 147 -272 293 -19 20 -91 97 -160 171 -69 73
-157 167 -196 209 -39 41 -82 87 -95 101 -20 22 -182 195 -289 309 -14 15 -83
89 -155 165 -71 77 -158 169 -191 205 -34 36 -76 81 -94 100 -18 19 -85 91
-150 160 -65 69 -132 141 -150 160 -18 19 -85 91 -149 159 -64 68 -133 143
-154 165 -21 23 -61 64 -88 93 -27 28 -49 58 -49 67 0 8 16 75 36 148 53 193
84 311 88 328 2 8 11 41 20 73 9 31 23 82 31 112 9 30 18 55 20 55 3 0 32 -28
64 -62z m-346 -1192 c44 -46 242 -256 297 -316 83 -89 273 -293 370 -396 114
-121 334 -357 401 -428 35 -38 82 -88 104 -111 22 -23 96 -102 165 -176 69
-74 134 -143 145 -155 11 -11 47 -50 80 -85 33 -36 119 -128 191 -204 73 -77
146 -156 164 -175 18 -19 87 -93 153 -164 178 -188 184 -196 152 -196 -8 0
-16 1 -17 2 -2 1 -12 -3 -23 -9 -11 -6 -36 -14 -56 -17 -20 -3 -48 -10 -63
-15 -14 -6 -26 -8 -26 -5 0 2 -8 0 -17 -5 -10 -5 -31 -11 -48 -14 -39 -7 -51
-10 -175 -42 -58 -15 -112 -28 -120 -30 -8 -2 -161 -40 -340 -85 -179 -45
-332 -83 -340 -85 -8 -2 -188 -47 -400 -100 -212 -53 -392 -98 -400 -100 -8
-2 -134 -33 -280 -70 -146 -36 -272 -68 -282 -70 -9 -2 -136 -34 -282 -71
-147 -36 -269 -65 -271 -62 -3 2 13 67 34 144 21 76 60 218 85 314 26 96 55
204 66 240 20 71 299 1106 305 1130 2 8 26 101 55 205 52 191 119 437 125 465
2 8 29 107 60 220 31 113 58 213 61 223 7 30 13 51 30 112 9 33 17 67 19 76 6
31 28 99 32 99 3 0 23 -20 46 -44z m3102 -1751 c72 -77 157 -168 190 -204 33
-35 77 -83 98 -105 38 -39 38 -40 16 -48 -49 -19 -792 -199 -797 -194 -3 3 0
23 7 43 10 34 61 221 177 652 l38 143 71 -74 c38 -41 129 -137 200 -213z"/>
</g>
</svg>
