<?xml version="1.0" encoding="UTF-8" standalone="no"?>
<!-- Created with Inkscape (http://www.inkscape.org/) -->

<svg
   xmlns:dc="http://purl.org/dc/elements/1.1/"
   xmlns:cc="http://creativecommons.org/ns#"
   xmlns:rdf="http://www.w3.org/1999/02/22-rdf-syntax-ns#"
   xmlns:svg="http://www.w3.org/2000/svg"
   xmlns="http://www.w3.org/2000/svg"
   xmlns:sodipodi="http://sodipodi.sourceforge.net/DTD/sodipodi-0.dtd"
   xmlns:inkscape="http://www.inkscape.org/namespaces/inkscape"
   width="500"
   height="500"
   viewBox="0 0 132.29166 132.29167"
   version="1.1"
   id="svg8"
   inkscape:version="0.92.4 (5da689c313, 2019-01-14)"
   sodipodi:docname="weld sigil.svg">
  <defs
     id="defs2" />
  <sodipodi:namedview
     id="base"
     pagecolor="#ffffff"
     bordercolor="#666666"
     borderopacity="1.0"
     inkscape:pageopacity="0.0"
     inkscape:pageshadow="2"
     inkscape:zoom="1"
     inkscape:cx="260.29237"
     inkscape:cy="108.65854"
     inkscape:document-units="mm"
     inkscape:current-layer="g971"
     showgrid="false"
     units="px"
     scale-x="0.1"
     showguides="false"
     inkscape:window-width="1920"
     inkscape:window-height="1052"
     inkscape:window-x="0"
     inkscape:window-y="228"
     inkscape:window-maximized="1" />
  <metadata
     id="metadata5">
    <rdf:RDF>
      <cc:Work
         rdf:about="">
        <dc:format>image/svg+xml</dc:format>
        <dc:type
           rdf:resource="http://purl.org/dc/dcmitype/StillImage" />
        <dc:title></dc:title>
      </cc:Work>
    </rdf:RDF>
  </metadata>
  <g
     inkscape:label="Layer 1"
     inkscape:groupmode="layer"
     id="layer1"
     transform="translate(0,-164.70832)">
    <g
       id="g932">
      <g
         id="g943">
        <g
           id="g971"
           transform="matrix(0.99113534,0,0,0.99113534,0.58644367,2.046501)">
          <g
             id="g1466">
            <path
               transform="matrix(0.26694975,0,0,0.26694975,-0.59168879,164.11666)"
               inkscape:connector-curvature="0"
               id="path1455"
               d="m 407.23884,39.010867 c -31.72825,7.381696 -63.27637,15.601541 -94.91041,23.404408 -43.74466,11.028947 -87.55531,21.812075 -131.20189,33.220593 -3.68138,1.342935 -3.1415,6.172202 -0.28623,8.124372 53.33649,57.19959 106.6756,114.40033 160.50097,171.14041 2.00119,3.20441 7.33153,2.5069 7.93565,-1.39564 20.89647,-76.44946 41.61795,-152.94837 62.05566,-229.521487 0.413,-2.647655 -1.41965,-4.881098 -4.09375,-4.972656 z"
               style="opacity:1;vector-effect:none;fill:#000000;fill-opacity:1;fill-rule:nonzero;stroke:none;stroke-width:0;stroke-linecap:butt;stroke-linejoin:miter;stroke-miterlimit:6.69999981;stroke-dasharray:none;stroke-dashoffset:0;stroke-opacity:1;paint-order:stroke fill markers" />
            <path
               transform="matrix(0.26694975,0,0,0.26694975,-0.59168879,164.11666)"
               inkscape:connector-curvature="0"
               id="path1457"
               d="m 154.96247,102.20423 c -12.78062,2.13399 -25.24853,5.9183 -37.85576,8.8992 -7.06896,1.97094 -14.35652,3.36095 -21.215525,5.97873 -3.207891,1.95472 -1.866389,6.24586 0.704102,8.12304 13.363743,14.44549 26.598103,29.05181 40.466793,43.00293 2.98378,1.99417 6.61101,-0.56751 6.89746,-3.83594 5.2642,-19.14882 10.39349,-38.33913 15.53321,-57.51953 0.33276,-2.59118 -1.96017,-4.84861 -4.53028,-4.64843 z m -17.35546,66.30761 c 0.4549,0.17726 0.24083,0.0665 0,0 z m 0.91406,0.31543 c 0.15955,0.0405 -0.24845,-0.091 0,0 z"
               style="opacity:1;vector-effect:none;fill:#000000;fill-opacity:1;fill-rule:nonzero;stroke:none;stroke-width:0;stroke-linecap:butt;stroke-linejoin:miter;stroke-miterlimit:6.69999981;stroke-dasharray:none;stroke-dashoffset:0;stroke-opacity:1;paint-order:stroke fill markers" />
            <path
               transform="matrix(0.26694975,0,0,0.26694975,-0.59168879,164.11666)"
               inkscape:connector-curvature="0"
               id="path1453"
               d="m 359.53669,331.08215 c -4.16824,1.74653 -3.61056,7.17602 -5.15771,10.75962 -4.7117,17.27098 -9.46395,34.54588 -14.02588,51.84878 -0.45408,3.7735 4.06662,5.66763 6.97284,4.09349 18.92956,-4.87826 38.02205,-9.32586 56.873,-14.37755 3.77723,-1.41796 2.71033,-6.38072 -0.20619,-8.18273 -13.54436,-14.40689 -26.94554,-28.98056 -40.54981,-43.33594 -1.09358,-0.85473 -2.56313,-1.15163 -3.90625,-0.80567 z"
               style="opacity:1;vector-effect:none;fill:#8545ff;fill-opacity:1;fill-rule:nonzero;stroke:none;stroke-width:0;stroke-linecap:butt;stroke-linejoin:miter;stroke-miterlimit:6.69999981;stroke-dasharray:none;stroke-dashoffset:0;stroke-opacity:1;paint-order:stroke fill markers" />
            <path
               transform="matrix(0.26694975,0,0,0.26694975,-0.59168879,164.11666)"
               inkscape:connector-curvature="0"
               id="path1449"
               d="m 152.59919,223.57532 c -3.0939,3.3989 -2.9153,8.50776 -4.5519,12.65414 -19.8756,73.03843 -39.76836,146.07452 -59.214698,219.2277 -0.890555,3.84231 3.566763,6.74194 6.933023,4.95873 74.226455,-18.36595 148.431805,-36.82223 222.575765,-55.51831 3.73832,-1.13793 3.54945,-5.98183 0.82519,-8.10546 -26.04362,-29.07691 -53.06274,-57.26627 -79.63769,-85.85645 -27.31044,-29.02798 -54.41366,-58.25769 -82.03613,-86.9873 -1.41695,-1.13144 -3.30845,-1.14533 -4.89356,-0.37305 z"
               style="opacity:1;vector-effect:none;fill:#ffffff;fill-opacity:1;fill-rule:nonzero;stroke:none;stroke-width:0;stroke-linecap:butt;stroke-linejoin:miter;stroke-miterlimit:6.69999981;stroke-dasharray:none;stroke-dashoffset:0;stroke-opacity:1;paint-order:stroke fill markers" />
            <path
               transform="matrix(0.26694975,0,0,0.26694975,-0.59168879,164.11666)"
               inkscape:connector-curvature="0"
               id="path1447"
               d="m 177.04269,136.17475 c -3.49524,1.32657 -3.2466,5.59414 -4.41948,8.54755 -4.23485,15.39415 -8.49958,30.80942 -12.4847,46.25316 -0.37323,3.70915 3.6146,5.66856 5.54247,8.32632 51.05586,54.42858 101.90346,109.05343 153.13592,163.31563 2.25007,2.47372 6.54796,1.05477 7.1567,-2.13168 4.74468,-17.07177 9.44742,-34.16632 13.72712,-51.36053 0.22992,-3.76922 -3.6589,-5.77562 -5.64138,-8.49019 -50.71692,-54.41587 -101.4996,-108.77127 -152.51713,-162.90518 -1.1025,-1.3146 -2.82512,-1.88232 -4.49952,-1.55508 z"
               style="opacity:1;vector-effect:none;fill:#21e81a;fill-opacity:1;fill-rule:nonzero;stroke:none;stroke-width:0;stroke-linecap:butt;stroke-linejoin:miter;stroke-miterlimit:6.69999981;stroke-dasharray:none;stroke-dashoffset:0;stroke-opacity:1;paint-order:stroke fill markers" />
            <path
               sodipodi:type="star"
               style="opacity:1;vector-effect:none;fill:none;fill-opacity:1;fill-rule:nonzero;stroke:#ff00a9;stroke-width:7.9951582;stroke-linecap:butt;stroke-linejoin:miter;stroke-miterlimit:6.69999981;stroke-dasharray:none;stroke-dashoffset:0;stroke-opacity:1;paint-order:stroke fill markers"
               id="path838"
               sodipodi:sides="3"
               sodipodi:cx="40.090424"
               sodipodi:cy="246.75331"
               sodipodi:r1="57.634243"
               sodipodi:r2="28.81712"
               sodipodi:arg1="0.52359878"
               sodipodi:arg2="1.5707963"
               inkscape:flatsided="true"
               inkscape:rounded="0"
               inkscape:randomized="0"
               d="m 90.003142,275.57043 -99.8254371,0 49.9127191,-86.45136 z"
               transform="matrix(0.96606444,-0.24093957,0.24975965,1.0014292,-41.041542,13.589116)"
               inkscape:transform-center-y="-12.136772" />
            <path
               sodipodi:type="star"
               style="opacity:1;vector-effect:none;fill:none;fill-opacity:1;fill-rule:nonzero;stroke:#ff00a9;stroke-width:7.99532843;stroke-linecap:butt;stroke-linejoin:miter;stroke-miterlimit:6.69999981;stroke-dasharray:none;stroke-dashoffset:0;stroke-opacity:1;paint-order:stroke fill markers"
               id="path838-5"
               sodipodi:sides="3"
               sodipodi:cx="-90.003151"
               sodipodi:cy="-217.93619"
               sodipodi:r1="57.634247"
               sodipodi:r2="28.81712"
               sodipodi:arg1="0.52359878"
               sodipodi:arg2="1.5707963"
               inkscape:flatsided="true"
               inkscape:rounded="0"
               inkscape:randomized="0"
               d="m -40.090429,-189.11906 -99.825441,0 49.912719,-86.45137 z"
               inkscape:transform-center-y="12.136771"
               transform="matrix(-0.96606444,0.24093957,-0.24975965,-1.0014292,-68.406255,14.110255)"
               inkscape:transform-center-x="4.8493963e-06" />
          </g>
        </g>
      </g>
    </g>
  </g>
</svg>
